{
    "key": "group_57beb968308d9",
    "title": "Office",
    "fields": [],
    "location": [
        [
            {
                "param": "post_type",
                "operator": "==",
                "value": "office"
            }
        ]
    ],
    "menu_order": 0,
    "position": "normal",
    "style": "seamless",
    "label_placement": "top",
    "instruction_placement": "label",
    "hide_on_screen": [],
    "active": 1,
    "description": "",
    "old_ID": 63,
    "modified": 1472117096
}